<?xml version="1.0" encoding="UTF-8"?>
<testsuites>
  <testsuite name="Money" tests="44" assertions="70" failures="0" errors="0" time="0.433878">
    <testsuite name="SebastianBergmann\Money\CurrencyTest" file="/usr/share/nginx/html/buildtest/money/tests/CurrencyTest.php" tests="11" assertions="17" failures="0" errors="0" time="0.107383">
      <testcase name="testExceptionIsRaisedForInvalidConstructorArgument" class="SebastianBergmann\Money\CurrencyTest" file="/usr/share/nginx/html/buildtest/money/tests/CurrencyTest.php" line="19" assertions="1" time="0.007074"/>
      <testcase name="testCanBeConstructedFromUppercaseString" class="SebastianBergmann\Money\CurrencyTest" file="/usr/share/nginx/html/buildtest/money/tests/CurrencyTest.php" line="27" assertions="1" time="0.003609"/>
      <testcase name="testCanBeConstructedFromLowercaseString" class="SebastianBergmann\Money\CurrencyTest" file="/usr/share/nginx/html/buildtest/money/tests/CurrencyTest.php" line="39" assertions="1" time="0.003508"/>
      <testcase name="testCustomCurrencyCanBeRegistered" class="SebastianBergmann\Money\CurrencyTest" file="/usr/share/nginx/html/buildtest/money/tests/CurrencyTest.php" line="51" assertions="1" time="0.064586"/>
      <testcase name="testRegisteredCurrenciesCanBeAccessed" class="SebastianBergmann\Money\CurrencyTest" file="/usr/share/nginx/html/buildtest/money/tests/CurrencyTest.php" line="70" assertions="7" time="0.007220"/>
      <testcase name="testCanBeCastToString" class="SebastianBergmann\Money\CurrencyTest" file="/usr/share/nginx/html/buildtest/money/tests/CurrencyTest.php" line="87" assertions="1" time="0.003496"/>
      <testcase name="testCurrencyCodeCanBeRetrieved" class="SebastianBergmann\Money\CurrencyTest" file="/usr/share/nginx/html/buildtest/money/tests/CurrencyTest.php" line="96" assertions="1" time="0.003476"/>
      <testcase name="testDefaultFractionDigitsCanBeRetrieved" class="SebastianBergmann\Money\CurrencyTest" file="/usr/share/nginx/html/buildtest/money/tests/CurrencyTest.php" line="105" assertions="1" time="0.003536"/>
      <testcase name="testDisplayNameCanBeRetrieved" class="SebastianBergmann\Money\CurrencyTest" file="/usr/share/nginx/html/buildtest/money/tests/CurrencyTest.php" line="114" assertions="1" time="0.003406"/>
      <testcase name="testNumericCodeCanBeRetrieved" class="SebastianBergmann\Money\CurrencyTest" file="/usr/share/nginx/html/buildtest/money/tests/CurrencyTest.php" line="123" assertions="1" time="0.003940"/>
      <testcase name="testSubUnitCanBeRetrieved" class="SebastianBergmann\Money\CurrencyTest" file="/usr/share/nginx/html/buildtest/money/tests/CurrencyTest.php" line="132" assertions="1" time="0.003532"/>
    </testsuite>
    <testsuite name="SebastianBergmann\Money\IntlFormatterTest" file="/usr/share/nginx/html/buildtest/money/tests/IntlFormatterTest.php" tests="1" assertions="1" failures="0" errors="0" time="0.007357">
      <testcase name="testMoneyObjectCanBeFormattedAsString" class="SebastianBergmann\Money\IntlFormatterTest" file="/usr/share/nginx/html/buildtest/money/tests/IntlFormatterTest.php" line="24" assertions="1" time="0.007357"/>
    </testsuite>
    <testsuite name="SebastianBergmann\Money\MoneyTest" file="/usr/share/nginx/html/buildtest/money/tests/MoneyTest.php" tests="32" assertions="52" failures="0" errors="0" time="0.319139">
      <testcase name="testExceptionIsRaisedForInvalidConstructorArguments" class="SebastianBergmann\Money\MoneyTest" file="/usr/share/nginx/html/buildtest/money/tests/MoneyTest.php" line="20" assertions="1" time="0.004488"/>
      <testcase name="testExceptionIsRaisedForInvalidConstructorArguments2" class="SebastianBergmann\Money\MoneyTest" file="/usr/share/nginx/html/buildtest/money/tests/MoneyTest.php" line="31" assertions="1" time="0.004002"/>
      <testcase name="testExceptionIsRaisedForInvalidConstructorArguments3" class="SebastianBergmann\Money\MoneyTest" file="/usr/share/nginx/html/buildtest/money/tests/MoneyTest.php" line="41" assertions="1" time="0.004023"/>
      <testcase name="testObjectCanBeConstructedForValidConstructorArguments" class="SebastianBergmann\Money\MoneyTest" file="/usr/share/nginx/html/buildtest/money/tests/MoneyTest.php" line="51" assertions="1" time="0.004228"/>
      <testcase name="testObjectCanBeConstructedForValidConstructorArguments2" class="SebastianBergmann\Money\MoneyTest" file="/usr/share/nginx/html/buildtest/money/tests/MoneyTest.php" line="65" assertions="1" time="0.003724"/>
      <testcase name="testObjectCanBeConstructedFromStringValue" class="SebastianBergmann\Money\MoneyTest" file="/usr/share/nginx/html/buildtest/money/tests/MoneyTest.php" line="80" assertions="1" time="0.015775"/>
      <testcase name="testObjectCanBeConstructedFromStringValue2" class="SebastianBergmann\Money\MoneyTest" file="/usr/share/nginx/html/buildtest/money/tests/MoneyTest.php" line="94" assertions="1" time="0.012527"/>
      <testcase name="testAmountCanBeRetrieved" class="SebastianBergmann\Money\MoneyTest" file="/usr/share/nginx/html/buildtest/money/tests/MoneyTest.php" line="106" assertions="1" time="0.004050"/>
      <testcase name="testConvertedAmountCanBeRetrieved" class="SebastianBergmann\Money\MoneyTest" file="/usr/share/nginx/html/buildtest/money/tests/MoneyTest.php" line="117" assertions="1" time="0.004008"/>
      <testcase name="testCurrencyCanBeRetrieved" class="SebastianBergmann\Money\MoneyTest" file="/usr/share/nginx/html/buildtest/money/tests/MoneyTest.php" line="128" assertions="1" time="0.008190"/>
      <testcase name="testAnotherMoneyObjectWithSameCurrencyCanBeAdded" class="SebastianBergmann\Money\MoneyTest" file="/usr/share/nginx/html/buildtest/money/tests/MoneyTest.php" line="144" assertions="3" time="0.005790"/>
      <testcase name="testExceptionIsThrownForOverflowingAddition" class="SebastianBergmann\Money\MoneyTest" file="/usr/share/nginx/html/buildtest/money/tests/MoneyTest.php" line="167" assertions="1" time="0.005493"/>
      <testcase name="testExceptionIsRaisedForIntegerOverflow" class="SebastianBergmann\Money\MoneyTest" file="/usr/share/nginx/html/buildtest/money/tests/MoneyTest.php" line="183" assertions="1" time="0.004309"/>
      <testcase name="testExceptionIsRaisedWhenMoneyObjectWithDifferentCurrencyIsAdded" class="SebastianBergmann\Money\MoneyTest" file="/usr/share/nginx/html/buildtest/money/tests/MoneyTest.php" line="199" assertions="1" time="0.005217"/>
      <testcase name="testAnotherMoneyObjectWithSameCurrencyCanBeSubtracted" class="SebastianBergmann\Money\MoneyTest" file="/usr/share/nginx/html/buildtest/money/tests/MoneyTest.php" line="218" assertions="3" time="0.006168"/>
      <testcase name="testExceptionIsThrownForOverflowingSubtraction" class="SebastianBergmann\Money\MoneyTest" file="/usr/share/nginx/html/buildtest/money/tests/MoneyTest.php" line="241" assertions="1" time="0.004978"/>
      <testcase name="testExceptionIsRaisedWhenMoneyObjectWithDifferentCurrencyIsSubtracted" class="SebastianBergmann\Money\MoneyTest" file="/usr/share/nginx/html/buildtest/money/tests/MoneyTest.php" line="258" assertions="1" time="0.005324"/>
      <testcase name="testCanBeNegated" class="SebastianBergmann\Money\MoneyTest" file="/usr/share/nginx/html/buildtest/money/tests/MoneyTest.php" line="274" assertions="2" time="0.005114"/>
      <testcase name="testCanBeMultipliedByAFactor" class="SebastianBergmann\Money\MoneyTest" file="/usr/share/nginx/html/buildtest/money/tests/MoneyTest.php" line="293" assertions="2" time="0.005199"/>
      <testcase name="testExceptionIsRaisedWhenMultipliedUsingInvalidRoundingMode" class="SebastianBergmann\Money\MoneyTest" file="/usr/share/nginx/html/buildtest/money/tests/MoneyTest.php" line="309" assertions="1" time="0.004312"/>
      <testcase name="testCanBeAllocatedToNumberOfTargets" class="SebastianBergmann\Money\MoneyTest" file="/usr/share/nginx/html/buildtest/money/tests/MoneyTest.php" line="323" assertions="1" time="0.095710"/>
      <testcase name="testPercentageCanBeExtracted" class="SebastianBergmann\Money\MoneyTest" file="/usr/share/nginx/html/buildtest/money/tests/MoneyTest.php" line="359" assertions="2" time="0.022037"/>
      <testcase name="testExceptionIsRaisedWhenTryingToAllocateToInvalidNumberOfTargets" class="SebastianBergmann\Money\MoneyTest" file="/usr/share/nginx/html/buildtest/money/tests/MoneyTest.php" line="375" assertions="1" time="0.004285"/>
      <testcase name="testCanBeAllocatedByRatios" class="SebastianBergmann\Money\MoneyTest" file="/usr/share/nginx/html/buildtest/money/tests/MoneyTest.php" line="391" assertions="1" time="0.024511"/>
      <testcase name="testCanBeComparedToAnotherMoneyObjectWithSameCurrency" class="SebastianBergmann\Money\MoneyTest" file="/usr/share/nginx/html/buildtest/money/tests/MoneyTest.php" line="414" assertions="3" time="0.006273"/>
      <testcase name="testCanBeComparedToAnotherMoneyObjectWithSameCurrency2" class="SebastianBergmann\Money\MoneyTest" file="/usr/share/nginx/html/buildtest/money/tests/MoneyTest.php" line="435" assertions="2" time="0.006225"/>
      <testcase name="testCanBeComparedToAnotherMoneyObjectWithSameCurrency3" class="SebastianBergmann\Money\MoneyTest" file="/usr/share/nginx/html/buildtest/money/tests/MoneyTest.php" line="455" assertions="2" time="0.006041"/>
      <testcase name="testCanBeComparedToAnotherMoneyObjectWithSameCurrency4" class="SebastianBergmann\Money\MoneyTest" file="/usr/share/nginx/html/buildtest/money/tests/MoneyTest.php" line="475" assertions="4" time="0.007278"/>
      <testcase name="testCanBeComparedToAnotherMoneyObjectWithSameCurrency5" class="SebastianBergmann\Money\MoneyTest" file="/usr/share/nginx/html/buildtest/money/tests/MoneyTest.php" line="499" assertions="4" time="0.010218"/>
      <testcase name="testCanBeComparedToAnotherMoneyObjectWithSameCurrency6" class="SebastianBergmann\Money\MoneyTest" file="/usr/share/nginx/html/buildtest/money/tests/MoneyTest.php" line="524" assertions="4" time="0.009499"/>
      <testcase name="testExceptionIsRaisedWhenComparedToMoneyObjectWithDifferentCurrency" class="SebastianBergmann\Money\MoneyTest" file="/usr/share/nginx/html/buildtest/money/tests/MoneyTest.php" line="545" assertions="1" time="0.004773"/>
      <testcase name="testCanBeSerializedToJson" class="SebastianBergmann\Money\MoneyTest" file="/usr/share/nginx/html/buildtest/money/tests/MoneyTest.php" line="560" assertions="1" time="0.005369"/>
    </testsuite>
  </testsuite>
</testsuites>
