<?xml version="1.0" encoding="UTF-8"?>
<phploc>
  <directories>4</directories>
  <files>193</files>
  <loc>7721</loc>
  <lloc>588</lloc>
  <llocClasses>265</llocClasses>
  <llocFunctions>130</llocFunctions>
  <llocGlobal>193</llocGlobal>
  <cloc>3665</cloc>
  <ccn>22</ccn>
  <ccnMethods>20</ccnMethods>
  <interfaces>2</interfaces>
  <traits>0</traits>
  <classes>187</classes>
  <abstractClasses>0</abstractClasses>
  <concreteClasses>187</concreteClasses>
  <functions>1</functions>
  <namedFunctions>0</namedFunctions>
  <anonymousFunctions>1</anonymousFunctions>
  <methods>218</methods>
  <publicMethods>212</publicMethods>
  <nonPublicMethods>6</nonPublicMethods>
  <nonStaticMethods>214</nonStaticMethods>
  <staticMethods>4</staticMethods>
  <constants>0</constants>
  <classConstants>0</classConstants>
  <globalConstants>0</globalConstants>
  <testClasses>3</testClasses>
  <testMethods>44</testMethods>
  <ccnByLloc>0.037414965986395</ccnByLloc>
  <llocByNof>130</llocByNof>
  <methodCalls>342</methodCalls>
  <staticMethodCalls>187</staticMethodCalls>
  <instanceMethodCalls>155</instanceMethodCalls>
  <attributeAccesses>39</attributeAccesses>
  <staticAttributeAccesses>9</staticAttributeAccesses>
  <instanceAttributeAccesses>30</instanceAttributeAccesses>
  <globalAccesses>0</globalAccesses>
  <globalVariableAccesses>0</globalVariableAccesses>
  <superGlobalVariableAccesses>0</superGlobalVariableAccesses>
  <globalConstantAccesses>0</globalConstantAccesses>
  <classCcnMin>1</classCcnMin>
  <classCcnAvg>1.1041666666667</classCcnAvg>
  <classCcnMax>19</classCcnMax>
  <classLlocMin>0</classLlocMin>
  <classLlocAvg>1.3802083333333</classLlocAvg>
  <classLlocMax>67</classLlocMax>
  <methodCcnMin>1</methodCcnMin>
  <methodCcnAvg>1.0921658986175</methodCcnAvg>
  <methodCcnMax>4</methodCcnMax>
  <methodLlocMin>1</methodLlocMin>
  <methodLlocAvg>1.1889400921659</methodLlocAvg>
  <methodLlocMax>12</methodLlocMax>
  <namespaces>1</namespaces>
  <ncloc>4056</ncloc>
</phploc>
